607_3A
…
#Calculate the user bias 

user_bias <- raw_data %>% 
    group_by(profile_name) %>%
    summarize(bu = mean(rating, na.rm = TRUE) - overall_mean)
#Adam Stevens output matches manual calculation found in the .xlsx file Sheet 1
user_bias

# A tibble: 75 × 2
   profile_name           bu
   <chr>               <dbl>
 1 Aaron Powell       0.46  
 2 Adam Gutierrez     0.56  
 3 Adam Howard        0.96  
 4 Adam Stevens      -0.0400
 5 Alan Chavez        0.96  
 6 Alan Reyes        -0.79  
 7 Albert Richardson -0.29  
 8 Amanda Wright      1.63  
 9 Andrew Adams      -0.373 
10 Anthony Smith      1.63  
# ℹ 65 more rows

# calculate the predicted rating aka rui

final_predictions <- raw_data %>% 
  filter(is.na(rating)) %>%
  left_join(movie_bias, by ="movie_title") %>%
  left_join(user_bias, by = "profile_name") %>%
  #this runs the formula provided in the slides for the Predicted Rating 
  mutate(predicted_rating = overall_mean + bi + bu)

final_predictions

# A tibble: 175 × 7
   account_id profile_name   movie_title rating      bi      bu predicted_rating
        <dbl> <chr>          <chr>        <dbl>   <dbl>   <dbl>            <dbl>
 1       6000 Carol Johnson  Deadpool &…     NA -0.128  -0.707              2.21
 2       6000 Carol Johnson  Inside Out…     NA -0.0400 -0.707              2.29
 3       6000 Carol Johnson  Oppenheimer     NA -0.104  -0.707              2.23
 4       6001 Edward Perez   Oppenheimer     NA -0.104  -0.240              2.70
 5       6002 Amanda Wright  Inside Out…     NA -0.0400  1.63               4.63
 6       6002 Amanda Wright  Barbie          NA  0.266   1.63               4.93
 7       6002 Amanda Wright  Spider-Man…     NA  0.164   1.63               4.83
 8       6003 Mark Taylor    Barbie          NA  0.266   0.76               4.07
 9       6004 Donna Harris   Barbie          NA  0.266  -0.240              3.07
10       6005 Richard Willi… Dune: Part…     NA -0.0855 -0.0400             2.91
# ℹ 165 more rows
…
  # 2. Within each group, grab the row with the maximum score
  slice_max(order_by = predicted_rating, n = 1, with_ties = FALSE) %>%
  
  # 3. Clean up the grouping metadata
  ungroup() %>%
  
  # 4. Display the most important columns
  select(profile_name, movie_title, predicted_rating)

# View the result
top_recommendations

# A tibble: 68 × 3
   profile_name      movie_title    predicted_rating
   <chr>             <chr>                     <dbl>
 1 Adam Gutierrez    Dune: Part Two             3.51
 2 Adam Howard       Barbie                     4.27
 3 Adam Stevens      Barbie                     3.27
 4 Alan Chavez       Barbie                     4.27
 5 Alan Reyes        Barbie                     2.52
 6 Albert Richardson Dune: Part Two             2.66
 7 Amanda Wright     Barbie                     4.93
 8 Andrew Adams      Barbie                     2.93
 9 Anthony Smith     Dune: Part Two             4.58
10 Ashley Allen      Barbie                     2.60
# ℹ 58 more rows
…
